CODIGO,SERIAL,TIPO,MARCA,MODELO,UBICACION,ESTADO
HOLTER 103,3A-8044,1,1,1,7,1
HOLTER 104,3A-11606,1,1,1,7,1
HOLTER 105,3A-1039,1,1,1,7,1
HOLTER 106,3A-11607,1,1,1,7,1
HOLTER 107,3A-11608,1,1,1,7,1
HOLTER 108,3A-2151,1,1,1,7,1
HOLTER 109,3A-9421,1,1,1,7,1
HOLTER 110,3A-9310,1,1,1,6,1
HOLTER 111,3A-11609,1,1,1,7,1
HOLTER 112,R1,1,1,1,6,1
HOLTER 113,3A-9311,1,1,1,7,1
HOLTER 114,3A-11815,1,1,1,6,1
HOLTER 115,3A-9573,1,1,1,7,1
HOLTER 116,3A-8940,1,1,1,6,1
HOLTER 117,3A-9484,1,1,1,7,1
HOLTER 118,3A-9486,1,1,1,4,1
HOLTER 119,3A-9572,1,1,1,6,1
HOLTER 120,3A-9487,1,1,1,7,1
HOLTER 121,3A-8946,1,1,1,4,1
HOLTER 122,3A-9485,1,1,1,4,1
HOLTER 123,3A-1993,1,1,1,6,1
HOLTER 124,3A-10318,1,1,1,7,1
HOLTER 125,3A-11816,1,1,1,4,1
HOLTER 126,3A-11818,1,1,1,7,1
HOLTER 127,3A-12175,1,1,1,7,1
HOLTER 128,3A-12176,1,1,1,7,1
HOLTER 129,3A-11940,1,1,1,6,1
HOLTER 130,3A-12178,1,1,1,7,1