CODIGO,ESTADO,SERIAL,TIPO DE DISPOSITIVO,MARCA,MODELO,ENTIDAD
MAPA 551,1,IP309100004,2,2,7,3
MAPA 552,1,00087513,2,8,8,6
MAPA 553,2,140206005,2,2,7,3
MAPA 554,2,IP1602200009,2,2,2,7
MAPA 555,1,IP1602200106,2,2,2,6
MAPA 556,1,IP1605200325,2,2,2,7
MAPA 557,1,IP1602200057,2,2,2,4
MAPA 558,1,IP1602200170,2,2,2,4
MAPA 559,1,IP1602200295,2,2,2,10
MAPA 560,1,IP1602200047,2,2,2,6
MAPA 561,1,IP1602200018,2,2,2,7
MAPA 562,1,17030100040,2,2,2,6
MAPA 563,1,17030100040,2,2,2,6
MAPA 564,1,IP1701400086,2,2,2,5
MAPA 565,1,IP1701400310,2,2,2,5
MAPA 566,1,IP1701400267,2,2,2,5
MAPA 567,1,IP1701400116,2,2,2,5
MAPA 568,1,IP1701400067,2,2,2,4
MAPA 569,2,17030100024,2,2,2,3
MAPA 570,1,17030100023,2,2,2,10
MAPA 571,1,17030100042,2,2,2,1
MAPA 572,1,17030100190,2,2,2,2
MAPA 573,1,17030100192,2,2,2,7
MAPA 574,1,17030100036,2,2,2,7
MAPA 575,1,17030100031,2,2,2,7
MAPA 576,1,17030100016,2,2,2,7
MAPA 577,1,17030100188,2,2,2,4
MAPA 578,1,17030100055,2,2,2,7
MAPA 579,2,17030100033,2,2,2,7
MAPA 580,1,17030100037,2,2,2,4
MAPA 581,1,17030100029,2,2,2,7
MAPA 582,1,17030100030,2,2,2,7
MAPA 583,1,17030100027,2,2,2,7
MAPA 584,1,17030100052,2,2,2,7
MAPA 585,1,17030100032,2,2,2,7
MAPA 586,1,17030100021,2,2,2,7
MAPA 587,1,17030100041,2,2,2,4
MAPA 588,1,17030100174,2,2,2,4
MAPA 589,1,17030100184,2,2,2,6